module gitlab.com/leducthai/simple_mongodb

go 1.20

require (
	github.com/go-openapi/swag v0.22.4
	github.com/golang-jwt/jwt v3.2.2+incompatible
	github.com/golang/protobuf v1.5.3
	github.com/jessevdk/go-flags v1.5.0
	github.com/labstack/echo v3.3.10+incompatible
	github.com/redis/go-redis/v9 v9.0.5
	github.com/stretchr/testify v1.8.4
	go.mongodb.org/mongo-driver v1.12.0
	go.uber.org/zap v1.24.0
	golang.org/x/crypto v0.6.0
	gopkg.in/yaml.v3 v3.0.1
)

require (
	github.com/cespare/xxhash/v2 v2.2.0 // indirect
	github.com/davecgh/go-spew v1.1.1 // indirect
	github.com/dgryski/go-rendezvous v0.0.0-20200823014737-9f7001d12a5f // indirect
	github.com/golang/snappy v0.0.1 // indirect
	github.com/google/go-cmp v0.5.9 // indirect
	github.com/josharian/intern v1.0.0 // indirect
	github.com/klauspost/compress v1.13.6 // indirect
	github.com/kr/pretty v0.3.1 // indirect
	github.com/labstack/gommon v0.4.0 // indirect
	github.com/mailru/easyjson v0.7.7 // indirect
	github.com/mattn/go-colorable v0.1.13 // indirect
	github.com/mattn/go-isatty v0.0.17 // indirect
	github.com/montanaflynn/stats v0.0.0-20171201202039-1bf9dbcd8cbe // indirect
	github.com/pmezard/go-difflib v1.0.0 // indirect
	github.com/stretchr/objx v0.5.0 // indirect
	github.com/valyala/bytebufferpool v1.0.0 // indirect
	github.com/valyala/fasttemplate v1.2.2 // indirect
	github.com/xdg-go/pbkdf2 v1.0.0 // indirect
	github.com/xdg-go/scram v1.1.2 // indirect
	github.com/xdg-go/stringprep v1.0.4 // indirect
	github.com/youmark/pkcs8 v0.0.0-20181117223130-1be2e3e5546d // indirect
	go.uber.org/atomic v1.7.0 // indirect
	go.uber.org/multierr v1.6.0 // indirect
	golang.org/x/net v0.10.0 // indirect
	golang.org/x/sync v0.0.0-20220722155255-886fb9371eb4 // indirect
	golang.org/x/sys v0.8.0 // indirect
	golang.org/x/text v0.9.0 // indirect
	google.golang.org/protobuf v1.28.0 // indirect
)
